<?xml version="1.0" encoding="UTF-8"?>
<session version="1.0">
<refactoring comment="Copy element &apos;Wc.java&apos; to &apos;l9_ex4/src/(default package)&apos;&#x0A;- Original project: &apos;l9_ex2&apos;&#x0A;- Destination element: &apos;l9_ex4/src/(default package)&apos;&#x0A;- Original element: &apos;Wc.java&apos;" description="Copy compilation unit" destination="=l9_ex4/src&lt;" element1="/src&lt;{Wc.java" files="0" flags="589830" folders="0" id="org.eclipse.jdt.ui.copy" policy="org.eclipse.jdt.ui.copyResources" stamp="1354513782675" units="1" version="1.0"/>
</session>